material hills
{
   technique
   {
      pass
      {
         lighting off
         depth_write off

         texture_unit
         {
            cubic_texture hills2.tga separateUV
            tex_address_mode clamp
         }
      }
   }
}

